Name_O,Name_D,T1,T2,T3
Stevenage,East Hertfordshire,0,0,0
Welwyn Hatfield,Broxbourne,7,0,5
Stevenage,Welwyn Hatfield,0,0,0
Watford,St Albans,5,0,3
Broxbourne,Hertsmere,1,1,1
Welwyn Hatfield,East Hertfordshire,5,5,11
Dacorum,Watford,8,0,7
St Albans,Dacorum,0,0,0
Hertsmere,St Albans,1,1,1
Hertsmere,Three Rivers,3,0,1
Welwyn Hatfield,St Albans,0,0,0
St Albans,Stevenage,9,0,8
East Hertfordshire,Broxbourne,0,0,0
Dacorum,Stevenage,10,0,10
East Hertfordshire,Welwyn Hatfield,0,0,0
St Albans,Welwyn Hatfield,4,0,3
Hertsmere,Watford,4,4,8
Welwyn Hatfield,Stevenage,8,0,7
North Hertfordshire,East Hertfordshire,0,0,0
St Albans,Hertsmere,0,0,0
St Albans,Watford,0,0,0
Dacorum,Three Rivers,10,2,15
Welwyn Hatfield,Hertsmere,8,0,7
East Hertfordshire,Stevenage,0,0,0
Three Rivers,Dacorum,10,0,10
Broxbourne,East Hertfordshire,0,0,0
North Hertfordshire,Dacorum,0,0,0
Dacorum,North Hertfordshire,7,0,6
Stevenage,St Albans,1,0,0
Stevenage,North Hertfordshire,0,0,0
East Hertfordshire,North Hertfordshire,1,1,0
North Hertfordshire,Stevenage,2,2,3
Broxbourne,Welwyn Hatfield,5,1,5
Watford,Dacorum,4,4,8
Hertsmere,Welwyn Hatfield,7,0,5
Three Rivers,Hertsmere,0,0,0
Hertsmere,Broxbourne,5,5,11
Watford,Hertsmere,9,0,8
Stevenage,Dacorum,0,0,0
Watford,Three Rivers,0,0,0
Three Rivers,Watford,10,3,15
Dacorum,St Albans,7,0,5
