$O;Y5
*
*Time interval
   0.00  24.00
*  factor
1.000.000
*              Orig                Dest         Number
*               Zone                 Zone         Trips
10	9	0
8	1	7
10	8	0
6	7	5
1	3	1
8	9	5
2	6	8
7	2	0
3	7	1
3	5	3
8	7	0
7	10	9
9	1	0
2	10	10
9	8	0
7	8	4
3	6	4
8	10	8
4	9	0
7	3	0
7	6	0
2	5	10
8	3	8
9	10	0
5	2	10
1	9	0
4	2	0
2	4	7
10	7	1
10	4	0
9	4	1
4	10	2
1	8	5
6	2	4
3	8	7
5	3	0
3	1	5
6	3	9
10	2	0
6	5	0
5	6	10
2	7	7
